%YAML 1.1
%TAG !u! tag:unity3d.com,2011:
--- !u!74 &7400000
AnimationClip:
  m_ObjectHideFlags: 0
  m_CorrespondingSourceObject: {fileID: 0}
  m_PrefabInstance: {fileID: 0}
  m_PrefabAsset: {fileID: 0}
  m_Name: left_walk
  serializedVersion: 6
  m_Legacy: 0
  m_Compressed: 0
  m_UseHighQualityCurve: 1
  m_RotationCurves: []
  m_CompressedRotationCurves: []
  m_EulerCurves: []
  m_PositionCurves: []
  m_ScaleCurves: []
  m_FloatCurves: []
  m_PPtrCurves:
  - curve:
    - time: 0
      value: {fileID: 966856854952225475, guid: 06e90dd8395b64eedba551f0203ce6f1, type: 3}
    - time: 0.083333336
      value: {fileID: -2288481850828277161, guid: 06e90dd8395b64eedba551f0203ce6f1, type: 3}
    - time: 0.18333334
      value: {fileID: -7252208648033617722, guid: 06e90dd8395b64eedba551f0203ce6f1, type: 3}
    - time: 0.26666668
      value: {fileID: 3671660949366148775, guid: 06e90dd8395b64eedba551f0203ce6f1, type: 3}
    - time: 0.36666667
      value: {fileID: -6145621076206424836, guid: 06e90dd8395b64eedba551f0203ce6f1, type: 3}
    - time: 0.45
      value: {fileID: 9133081456274813288, guid: 06e90dd8395b64eedba551f0203ce6f1, type: 3}
    - time: 0.55
      value: {fileID: -6916214162355320729, guid: 06e90dd8395b64eedba551f0203ce6f1, type: 3}
    - time: 0.6333333
      value: {fileID: -6551649978122963278, guid: 06e90dd8395b64eedba551f0203ce6f1, type: 3}
    - time: 0.73333335
      value: {fileID: 1199973237275804339, guid: 06e90dd8395b64eedba551f0203ce6f1, type: 3}
    - time: 0.81666666
      value: {fileID: -3106774586555275715, guid: 06e90dd8395b64eedba551f0203ce6f1, type: 3}
    - time: 0.9166667
      value: {fileID: -5316682984193371075, guid: 06e90dd8395b64eedba551f0203ce6f1, type: 3}
    - time: 1
      value: {fileID: -5943056653884954948, guid: 06e90dd8395b64eedba551f0203ce6f1, type: 3}
    attribute: m_Sprite
    path: 
    classID: 212
    script: {fileID: 0}
  m_SampleRate: 60
  m_WrapMode: 0
  m_Bounds:
    m_Center: {x: 0, y: 0, z: 0}
    m_Extent: {x: 0, y: 0, z: 0}
  m_ClipBindingConstant:
    genericBindings:
    - serializedVersion: 2
      path: 0
      attribute: 0
      script: {fileID: 0}
      typeID: 212
      customType: 23
      isPPtrCurve: 1
    pptrCurveMapping:
    - {fileID: 966856854952225475, guid: 06e90dd8395b64eedba551f0203ce6f1, type: 3}
    - {fileID: -2288481850828277161, guid: 06e90dd8395b64eedba551f0203ce6f1, type: 3}
    - {fileID: -7252208648033617722, guid: 06e90dd8395b64eedba551f0203ce6f1, type: 3}
    - {fileID: 3671660949366148775, guid: 06e90dd8395b64eedba551f0203ce6f1, type: 3}
    - {fileID: -6145621076206424836, guid: 06e90dd8395b64eedba551f0203ce6f1, type: 3}
    - {fileID: 9133081456274813288, guid: 06e90dd8395b64eedba551f0203ce6f1, type: 3}
    - {fileID: -6916214162355320729, guid: 06e90dd8395b64eedba551f0203ce6f1, type: 3}
    - {fileID: -6551649978122963278, guid: 06e90dd8395b64eedba551f0203ce6f1, type: 3}
    - {fileID: 1199973237275804339, guid: 06e90dd8395b64eedba551f0203ce6f1, type: 3}
    - {fileID: -3106774586555275715, guid: 06e90dd8395b64eedba551f0203ce6f1, type: 3}
    - {fileID: -5316682984193371075, guid: 06e90dd8395b64eedba551f0203ce6f1, type: 3}
    - {fileID: -5943056653884954948, guid: 06e90dd8395b64eedba551f0203ce6f1, type: 3}
  m_AnimationClipSettings:
    serializedVersion: 2
    m_AdditiveReferencePoseClip: {fileID: 0}
    m_AdditiveReferencePoseTime: 0
    m_StartTime: 0
    m_StopTime: 1.0166667
    m_OrientationOffsetY: 0
    m_Level: 0
    m_CycleOffset: 0
    m_HasAdditiveReferencePose: 0
    m_LoopTime: 1
    m_LoopBlend: 0
    m_LoopBlendOrientation: 0
    m_LoopBlendPositionY: 0
    m_LoopBlendPositionXZ: 0
    m_KeepOriginalOrientation: 0
    m_KeepOriginalPositionY: 1
    m_KeepOriginalPositionXZ: 0
    m_HeightFromFeet: 0
    m_Mirror: 0
  m_EditorCurves: []
  m_EulerEditorCurves: []
  m_HasGenericRootTransform: 0
  m_HasMotionFloatCurves: 0
  m_Events: []
